digraph "C:/Users/Eng. Mohamed/Desktop/ARTRONIC/Library/gpio.h"
{
  edge [fontname="Helvetica",fontsize="10",labelfontname="Helvetica",labelfontsize="10"];
  node [fontname="Helvetica",fontsize="10",shape=record];
  Node1 [label="C:/Users/Eng. Mohamed\l/Desktop/ARTRONIC/Library\l/gpio.h",height=0.2,width=0.4,color="black", fillcolor="grey75", style="filled", fontcolor="black"];
  Node1 -> Node2 [dir="back",color="midnightblue",fontsize="10",style="solid"];
  Node2 [label="C:/Users/Eng. Mohamed\l/Desktop/ARTRONIC/Library/can.h",height=0.2,width=0.4,color="black", fillcolor="white", style="filled",URL="$can_8h.html"];
  Node2 -> Node3 [dir="back",color="midnightblue",fontsize="10",style="solid"];
  Node3 [label="C:/Users/Eng. Mohamed\l/Desktop/ARTRONIC/Library/can.c",height=0.2,width=0.4,color="black", fillcolor="white", style="filled",URL="$can_8c.html"];
  Node1 -> Node4 [dir="back",color="midnightblue",fontsize="10",style="solid"];
  Node4 [label="C:/Users/Eng. Mohamed\l/Desktop/ARTRONIC/Library\l/gpio.c",height=0.2,width=0.4,color="black", fillcolor="white", style="filled",URL="$gpio_8c.html"];
  Node1 -> Node5 [dir="back",color="midnightblue",fontsize="10",style="solid"];
  Node5 [label="C:/Users/Eng. Mohamed\l/Desktop/ARTRONIC/Library\l/usart.h",height=0.2,width=0.4,color="black", fillcolor="white", style="filled",URL="$usart_8h.html"];
  Node5 -> Node6 [dir="back",color="midnightblue",fontsize="10",style="solid"];
  Node6 [label="C:/Users/Eng. Mohamed\l/Desktop/ARTRONIC/Library\l/usart.c",height=0.2,width=0.4,color="black", fillcolor="white", style="filled",URL="$usart_8c.html"];
}
