digraph "C:/Users/Eng. Mohamed/Desktop/ARTRONIC" {
  compound=true
  node [ fontsize="10", fontname="Helvetica"];
  edge [ labelfontsize="10", labelfontname="Helvetica"];
  subgraph clusterdir_b20c579963872c294b2fc85d4d7f1028 {
    graph [ bgcolor="#eeeeff", pencolor="black", label="" URL="dir_b20c579963872c294b2fc85d4d7f1028.html"];
    dir_b20c579963872c294b2fc85d4d7f1028 [shape=plaintext label="ARTRONIC"];
    dir_ee8e0feadf653de053763c8b5f8d0d4c [shape=box label="Library" color="black" fillcolor="white" style="filled" URL="dir_ee8e0feadf653de053763c8b5f8d0d4c.html"];
  }
}
