digraph "C:/Users/Eng. Mohamed/Desktop/ARTRONIC/Library" {
  compound=true
  node [ fontsize="10", fontname="Helvetica"];
  edge [ labelfontsize="10", labelfontname="Helvetica"];
  subgraph clusterdir_b20c579963872c294b2fc85d4d7f1028 {
    graph [ bgcolor="#ddddee", pencolor="black", label="ARTRONIC" fontname="Helvetica", fontsize="10", URL="dir_b20c579963872c294b2fc85d4d7f1028.html"]
  dir_ee8e0feadf653de053763c8b5f8d0d4c [shape=box, label="Library", style="filled", fillcolor="#eeeeff", pencolor="black", URL="dir_ee8e0feadf653de053763c8b5f8d0d4c.html"];
  }
}
