digraph "C:/Users/Eng. Mohamed/Desktop/ARTRONIC/Library/dma.c"
{
  edge [fontname="Helvetica",fontsize="10",labelfontname="Helvetica",labelfontsize="10"];
  node [fontname="Helvetica",fontsize="10",shape=record];
  Node1 [label="C:/Users/Eng. Mohamed\l/Desktop/ARTRONIC/Library/dma.c",height=0.2,width=0.4,color="black", fillcolor="grey75", style="filled", fontcolor="black"];
}
