digraph "C:/Users/Eng. Mohamed/Desktop/ARTRONIC/Library/extint.h"
{
  edge [fontname="Helvetica",fontsize="10",labelfontname="Helvetica",labelfontsize="10"];
  node [fontname="Helvetica",fontsize="10",shape=record];
  Node1 [label="C:/Users/Eng. Mohamed\l/Desktop/ARTRONIC/Library\l/extint.h",height=0.2,width=0.4,color="black", fillcolor="grey75", style="filled", fontcolor="black"];
  Node1 -> Node2 [color="midnightblue",fontsize="10",style="solid",fontname="Helvetica"];
  Node2 [label="common.h",height=0.2,width=0.4,color="black", fillcolor="white", style="filled",URL="$common_8h.html"];
  Node2 -> Node3 [color="midnightblue",fontsize="10",style="solid",fontname="Helvetica"];
  Node3 [label="stdint.h",height=0.2,width=0.4,color="grey75", fillcolor="white", style="filled"];
}
